%YAML 1.1
%TAG !u! tag:unity3d.com,2011:
--- !u!74 &7400000
AnimationClip:
  m_ObjectHideFlags: 0
  m_CorrespondingSourceObject: {fileID: 0}
  m_PrefabInstance: {fileID: 0}
  m_PrefabAsset: {fileID: 0}
  m_Name: Run_Player
  serializedVersion: 6
  m_Legacy: 0
  m_Compressed: 0
  m_UseHighQualityCurve: 1
  m_RotationCurves: []
  m_CompressedRotationCurves: []
  m_EulerCurves: []
  m_PositionCurves: []
  m_ScaleCurves: []
  m_FloatCurves: []
  m_PPtrCurves:
  - curve:
    - time: 0
      value: {fileID: -1278831328921534712, guid: b7b0d6765b7fca74098dcf726d990ba6,
        type: 3}
    - time: 0.11666667
      value: {fileID: 3459763801696814730, guid: b7b0d6765b7fca74098dcf726d990ba6,
        type: 3}
    - time: 0.25
      value: {fileID: 3983547855446278865, guid: b7b0d6765b7fca74098dcf726d990ba6,
        type: 3}
    - time: 0.36666667
      value: {fileID: -6121754673075472654, guid: b7b0d6765b7fca74098dcf726d990ba6,
        type: 3}
    - time: 0.48333332
      value: {fileID: 6763549101949821221, guid: b7b0d6765b7fca74098dcf726d990ba6,
        type: 3}
    - time: 0.6166667
      value: {fileID: 4958333996616250219, guid: b7b0d6765b7fca74098dcf726d990ba6,
        type: 3}
    - time: 0.73333335
      value: {fileID: -1932066870335834155, guid: b7b0d6765b7fca74098dcf726d990ba6,
        type: 3}
    - time: 0.85
      value: {fileID: 7779574516493393865, guid: b7b0d6765b7fca74098dcf726d990ba6,
        type: 3}
    - time: 0.98333335
      value: {fileID: 8316226907706344313, guid: b7b0d6765b7fca74098dcf726d990ba6,
        type: 3}
    - time: 1.1
      value: {fileID: 6688456871651644473, guid: b7b0d6765b7fca74098dcf726d990ba6,
        type: 3}
    attribute: m_Sprite
    path: 
    classID: 212
    script: {fileID: 0}
  m_SampleRate: 60
  m_WrapMode: 0
  m_Bounds:
    m_Center: {x: 0, y: 0, z: 0}
    m_Extent: {x: 0, y: 0, z: 0}
  m_ClipBindingConstant:
    genericBindings:
    - serializedVersion: 2
      path: 0
      attribute: 0
      script: {fileID: 0}
      typeID: 212
      customType: 23
      isPPtrCurve: 1
    pptrCurveMapping:
    - {fileID: -1278831328921534712, guid: b7b0d6765b7fca74098dcf726d990ba6, type: 3}
    - {fileID: 3459763801696814730, guid: b7b0d6765b7fca74098dcf726d990ba6, type: 3}
    - {fileID: 3983547855446278865, guid: b7b0d6765b7fca74098dcf726d990ba6, type: 3}
    - {fileID: -6121754673075472654, guid: b7b0d6765b7fca74098dcf726d990ba6, type: 3}
    - {fileID: 6763549101949821221, guid: b7b0d6765b7fca74098dcf726d990ba6, type: 3}
    - {fileID: 4958333996616250219, guid: b7b0d6765b7fca74098dcf726d990ba6, type: 3}
    - {fileID: -1932066870335834155, guid: b7b0d6765b7fca74098dcf726d990ba6, type: 3}
    - {fileID: 7779574516493393865, guid: b7b0d6765b7fca74098dcf726d990ba6, type: 3}
    - {fileID: 8316226907706344313, guid: b7b0d6765b7fca74098dcf726d990ba6, type: 3}
    - {fileID: 6688456871651644473, guid: b7b0d6765b7fca74098dcf726d990ba6, type: 3}
  m_AnimationClipSettings:
    serializedVersion: 2
    m_AdditiveReferencePoseClip: {fileID: 0}
    m_AdditiveReferencePoseTime: 0
    m_StartTime: 0
    m_StopTime: 1.1166667
    m_OrientationOffsetY: 0
    m_Level: 0
    m_CycleOffset: 0
    m_HasAdditiveReferencePose: 0
    m_LoopTime: 1
    m_LoopBlend: 0
    m_LoopBlendOrientation: 0
    m_LoopBlendPositionY: 0
    m_LoopBlendPositionXZ: 0
    m_KeepOriginalOrientation: 0
    m_KeepOriginalPositionY: 1
    m_KeepOriginalPositionXZ: 0
    m_HeightFromFeet: 0
    m_Mirror: 0
  m_EditorCurves: []
  m_EulerEditorCurves: []
  m_HasGenericRootTransform: 0
  m_HasMotionFloatCurves: 0
  m_Events: []
