%YAML 1.1
%TAG !u! tag:unity3d.com,2011:
--- !u!74 &7400000
AnimationClip:
  m_ObjectHideFlags: 0
  m_CorrespondingSourceObject: {fileID: 0}
  m_PrefabInstance: {fileID: 0}
  m_PrefabAsset: {fileID: 0}
  m_Name: Death_Player
  serializedVersion: 6
  m_Legacy: 0
  m_Compressed: 0
  m_UseHighQualityCurve: 1
  m_RotationCurves: []
  m_CompressedRotationCurves: []
  m_EulerCurves: []
  m_PositionCurves: []
  m_ScaleCurves: []
  m_FloatCurves: []
  m_PPtrCurves:
  - curve:
    - time: 0
      value: {fileID: 5891954272221969313, guid: 97b5a0dece471aa438ed8f62b91d813d,
        type: 3}
    - time: 0.18333334
      value: {fileID: 1332985710594468708, guid: 97b5a0dece471aa438ed8f62b91d813d,
        type: 3}
    - time: 0.31666666
      value: {fileID: -5376955357616482706, guid: 97b5a0dece471aa438ed8f62b91d813d,
        type: 3}
    - time: 0.5
      value: {fileID: -8577868360775106953, guid: 97b5a0dece471aa438ed8f62b91d813d,
        type: 3}
    - time: 0.65
      value: {fileID: -8834354535528585784, guid: 97b5a0dece471aa438ed8f62b91d813d,
        type: 3}
    - time: 0.85
      value: {fileID: -6681281299144672683, guid: 97b5a0dece471aa438ed8f62b91d813d,
        type: 3}
    - time: 0.98333335
      value: {fileID: 181452748693148898, guid: 97b5a0dece471aa438ed8f62b91d813d,
        type: 3}
    - time: 1.1666666
      value: {fileID: -7287802718124113120, guid: 97b5a0dece471aa438ed8f62b91d813d,
        type: 3}
    attribute: m_Sprite
    path: 
    classID: 212
    script: {fileID: 0}
  m_SampleRate: 60
  m_WrapMode: 0
  m_Bounds:
    m_Center: {x: 0, y: 0, z: 0}
    m_Extent: {x: 0, y: 0, z: 0}
  m_ClipBindingConstant:
    genericBindings:
    - serializedVersion: 2
      path: 0
      attribute: 0
      script: {fileID: 0}
      typeID: 212
      customType: 23
      isPPtrCurve: 1
    pptrCurveMapping:
    - {fileID: 5891954272221969313, guid: 97b5a0dece471aa438ed8f62b91d813d, type: 3}
    - {fileID: 1332985710594468708, guid: 97b5a0dece471aa438ed8f62b91d813d, type: 3}
    - {fileID: -5376955357616482706, guid: 97b5a0dece471aa438ed8f62b91d813d, type: 3}
    - {fileID: -8577868360775106953, guid: 97b5a0dece471aa438ed8f62b91d813d, type: 3}
    - {fileID: -8834354535528585784, guid: 97b5a0dece471aa438ed8f62b91d813d, type: 3}
    - {fileID: -6681281299144672683, guid: 97b5a0dece471aa438ed8f62b91d813d, type: 3}
    - {fileID: 181452748693148898, guid: 97b5a0dece471aa438ed8f62b91d813d, type: 3}
    - {fileID: -7287802718124113120, guid: 97b5a0dece471aa438ed8f62b91d813d, type: 3}
  m_AnimationClipSettings:
    serializedVersion: 2
    m_AdditiveReferencePoseClip: {fileID: 0}
    m_AdditiveReferencePoseTime: 0
    m_StartTime: 0
    m_StopTime: 1.1833333
    m_OrientationOffsetY: 0
    m_Level: 0
    m_CycleOffset: 0
    m_HasAdditiveReferencePose: 0
    m_LoopTime: 0
    m_LoopBlend: 0
    m_LoopBlendOrientation: 0
    m_LoopBlendPositionY: 0
    m_LoopBlendPositionXZ: 0
    m_KeepOriginalOrientation: 0
    m_KeepOriginalPositionY: 1
    m_KeepOriginalPositionXZ: 0
    m_HeightFromFeet: 0
    m_Mirror: 0
  m_EditorCurves: []
  m_EulerEditorCurves: []
  m_HasGenericRootTransform: 0
  m_HasMotionFloatCurves: 0
  m_Events: []
