%YAML 1.1
%TAG !u! tag:unity3d.com,2011:
--- !u!114 &11400000
MonoBehaviour:
  m_ObjectHideFlags: 0
  m_CorrespondingSourceObject: {fileID: 0}
  m_PrefabInstance: {fileID: 0}
  m_PrefabAsset: {fileID: 0}
  m_GameObject: {fileID: 0}
  m_Enabled: 1
  m_EditorHideFlags: 0
  m_Script: {fileID: -1893448595, guid: a040fb66244a7f54289914d98ea4ef7d, type: 3}
  m_Name: F_DownArrowJump
  m_EditorClassIdentifier: 
  _data:
    _json: '{"graph":{"variables":{"collection":{"$content":[],"$version":"A"},"$version":"A"},"controlInputDefinitions":[],"controlOutputDefinitions":[],"valueInputDefinitions":[],"valueOutputDefinitions":[],"title":null,"summary":null,"pan":{"x":-2134.963,"y":65.6166},"zoom":1.0,"elements":[{"kind":"Application","defaultValues":{"name":{"$content":"JumpForce","$type":"System.String"}},"position":{"x":17.0,"y":-194.0},"guid":"cc2511d1-828d-4302-89d6-14a2e9c680d1","$version":"A","$type":"Bolt.SetVariable","$id":"9"},{"specifyFallback":false,"kind":"Object","defaultValues":{"name":{"$content":"SpriteRenderer","$type":"System.String"},"object":null},"position":{"x":-1586.0,"y":196.0},"guid":"c8a1a812-b701-4671-bfe6-99b98f154e1c","$version":"A","$type":"Bolt.GetVariable","$id":"11"},{"numeric":false,"defaultValues":{},"position":{"x":-1716.0,"y":668.0},"guid":"476d018a-e67e-4076-90cc-8e9747069a40","$version":"A","$type":"Bolt.NotEqual","$id":"13"},{"specifyFallback":false,"kind":"Object","defaultValues":{"name":{"$content":"MinValue","$type":"System.String"},"object":null},"position":{"x":-1975.0,"y":778.0},"guid":"8f61254e-3696-41d8-9b25-a25bba8a13c0","$version":"A","$type":"Bolt.GetVariable","$id":"15"},{"type":"UnityEngine.Sprite","value":{"$content":0,"$type":"UnityEngine.Object"},"defaultValues":{},"position":{"x":-1470.0,"y":679.0},"guid":"3edac532-c200-40c7-8417-acaf94a24ce3","$version":"A","$type":"Bolt.Literal","$id":"17"},{"coroutine":false,"defaultValues":{},"position":{"x":-1968.0,"y":484.0},"guid":"be5128a3-a1a6-4136-8f07-441e348fe6fe","$version":"A","$type":"Bolt.Update","$id":"19"},{"type":"UnityEngine.Sprite","value":{"$content":1,"$type":"UnityEngine.Object"},"defaultValues":{},"position":{"x":-1336.0,"y":308.0},"guid":"9f38ec8a-88f2-4d3d-a3b6-999e3f7b8f0b","$version":"A","$type":"Bolt.Literal","$id":"21"},{"type":"System.Boolean","value":{"$content":true,"$type":"System.Boolean"},"defaultValues":{},"position":{"x":-2346.0,"y":5.0},"guid":"ce3568db-d74b-4ca7-9db1-5b3a1210de88","$version":"A","$type":"Bolt.Literal","$id":"23"},{"chainable":false,"member":{"name":"sprite","parameterTypes":null,"targetType":"UnityEngine.SpriteRenderer","targetTypeName":"UnityEngine.SpriteRenderer","$version":"A"},"defaultValues":{"target":null,"input":null},"position":{"x":-1162.0,"y":-74.0},"guid":"00dc9227-6927-48d8-a37b-b9de92d4dcfe","$version":"A","$type":"Bolt.SetMember","$id":"25"},{"specifyFallback":false,"kind":"Application","defaultValues":{"name":{"$content":"JumpForce","$type":"System.String"}},"position":{"x":-1981.0,"y":635.0},"guid":"fd969411-3d11-431c-ad2b-10f1cb7da67b","$version":"A","$type":"Bolt.GetVariable","$id":"28"},{"defaultValues":{},"position":{"x":-2045.0,"y":-198.0},"guid":"533f2849-ec7f-444b-ac69-b9eefd5adf70","$version":"A","$type":"Bolt.Branch","$id":"30"},{"specifyFallback":false,"kind":"Application","defaultValues":{"name":{"$content":"IsPaused","$type":"System.String"}},"position":{"x":-2367.0,"y":-105.0},"guid":"c89ce68b-34c9-4e2a-883f-7dcfd581a697","$version":"A","$type":"Bolt.GetVariable","$id":"32"},{"numeric":false,"defaultValues":{},"position":{"x":-2190.0,"y":-105.0},"guid":"2960e590-b02a-4098-bb63-987579a8b895","$version":"A","$type":"Bolt.Equal","$id":"34"},{"chainable":false,"member":{"name":"sprite","parameterTypes":null,"targetType":"UnityEngine.SpriteRenderer","targetTypeName":"UnityEngine.SpriteRenderer","$version":"A"},"defaultValues":{"target":null,"input":null},"position":{"x":-1236.0,"y":524.0},"guid":"417eca5e-13b1-4d31-9cf7-a8a5e4333938","$version":"A","$type":"Bolt.SetMember","$id":"36"},{"defaultValues":{},"position":{"x":-1575.0,"y":504.0},"guid":"b53a9b7a-69d1-43e8-8ceb-8c3efa8b1c70","$version":"A","$type":"Bolt.Branch","$id":"39"},{"specifyFallback":false,"kind":"Application","defaultValues":{"name":{"$content":"JumpForce","$type":"System.String"}},"position":{"x":-336.0,"y":-98.0},"guid":"1275f616-cd21-4659-9b28-3c18ac55518a","$version":"A","$type":"Bolt.GetVariable","$id":"41"},{"type":"System.Int32","value":{"$content":1,"$type":"System.Int32"},"defaultValues":{},"position":{"x":-314.0,"y":0.0},"guid":"3234b718-e260-4a9f-ba97-f280b51d5789","$version":"A","$type":"Bolt.Literal","$id":"43"},{"type":"System.Single","value":{"$content":1.0,"$type":"System.Single"},"defaultValues":{},"position":{"x":-826.0,"y":44.0},"guid":"bfa6be35-99ec-47ae-b7bd-bc47fb99e41d","$version":"A","$type":"Bolt.Literal","$id":"45"},{"specifyFallback":false,"kind":"Application","defaultValues":{"name":{"$content":"JumpForce","$type":"System.String"}},"position":{"x":-1762.0,"y":-102.0},"guid":"b6079bbf-83c1-44e1-b7fa-69527485fa5b","$version":"A","$type":"Bolt.GetVariable","$id":"47"},{"specifyFallback":false,"kind":"Application","defaultValues":{"name":{"$content":"NbCredit","$type":"System.String"}},"position":{"x":-872.0,"y":-70.0},"guid":"89499960-9ca3-43d9-8888-cafe2eeeafe9","$version":"A","$type":"Bolt.GetVariable","$id":"49"},{"defaultValues":{},"position":{"x":-1476.0,"y":-209.0},"guid":"a9c282fb-cc14-4f00-9b09-b96fb6c017f0","$version":"A","$type":"Bolt.Branch","$id":"51"},{"kind":"Application","defaultValues":{"name":{"$content":"NbCredit","$type":"System.String"}},"position":{"x":-574.0,"y":-106.0},"guid":"94bfffdd-9ce1-4868-b4b3-758b509974fb","$version":"A","$type":"Bolt.SetVariable","$id":"53"},{"specifyFallback":false,"kind":"Object","defaultValues":{"name":{"$content":"MinValue","$type":"System.String"},"object":null},"position":{"x":-1756.0,"y":41.0},"guid":"779839fd-85b0-48c5-83aa-b9dc793fe5f6","$version":"A","$type":"Bolt.GetVariable","$id":"55"},{"defaultValues":{},"position":{"x":-702.0,"y":-20.0},"guid":"056c9fa4-5bfb-4803-8ede-a744e075cf5d","$version":"A","$type":"Bolt.GenericAdd","$id":"57"},{"defaultValues":{},"position":{"x":-141.0,"y":-52.0},"guid":"a65781af-6bd8-43da-bab2-d438d7929f3a","$version":"A","$type":"Bolt.GenericSubtract","$id":"59"},{"coroutine":false,"defaultValues":{"target":null},"position":{"x":-2667.0,"y":-207.0},"guid":"a6235cc4-e4ec-4773-abb2-7e889046e713","$version":"A","$type":"Bolt.OnButtonClick","$id":"61"},{"numeric":true,"defaultValues":{"b":{"$content":0.0,"$type":"System.Single"}},"position":{"x":-1564.0,"y":-44.0},"guid":"3eecf222-4bd6-41ca-b3bb-e2b4e5968479","$version":"A","$type":"Bolt.Greater","$id":"63"},{"sourceUnit":{"$ref":"30"},"sourceKey":"ifFalse","destinationUnit":{"$ref":"51"},"destinationKey":"enter","guid":"22e9652a-4f2f-4837-84c9-8c74477e5e12","$type":"Bolt.ControlConnection"},{"sourceUnit":{"$ref":"61"},"sourceKey":"trigger","destinationUnit":{"$ref":"30"},"destinationKey":"enter","guid":"6fe4cdc6-5c68-47a7-8462-7977c8d48547","$type":"Bolt.ControlConnection"},{"sourceUnit":{"$ref":"39"},"sourceKey":"ifTrue","destinationUnit":{"$ref":"36"},"destinationKey":"assign","guid":"47d0374a-3998-4562-a77e-8f806d332eb3","$type":"Bolt.ControlConnection"},{"sourceUnit":{"$ref":"19"},"sourceKey":"trigger","destinationUnit":{"$ref":"39"},"destinationKey":"enter","guid":"a757edcd-cac8-4f73-8004-396a0b684b0d","$type":"Bolt.ControlConnection"},{"sourceUnit":{"$ref":"51"},"sourceKey":"ifFalse","destinationUnit":{"$ref":"25"},"destinationKey":"assign","guid":"68adb90b-3a61-443c-ada1-f3c31d507697","$type":"Bolt.ControlConnection"},{"sourceUnit":{"$ref":"51"},"sourceKey":"ifTrue","destinationUnit":{"$ref":"53"},"destinationKey":"assign","guid":"81434730-be0a-46a7-9644-c5cfec310660","$type":"Bolt.ControlConnection"},{"sourceUnit":{"$ref":"53"},"sourceKey":"assigned","destinationUnit":{"$ref":"9"},"destinationKey":"assign","guid":"881570f8-1615-4f74-a939-ef696a67cdda","$type":"Bolt.ControlConnection"},{"sourceUnit":{"$ref":"11"},"sourceKey":"value","destinationUnit":{"$ref":"25"},"destinationKey":"target","guid":"ea130b46-6a72-4119-8942-1d706db935ab","$type":"Bolt.ValueConnection"},{"sourceUnit":{"$ref":"28"},"sourceKey":"value","destinationUnit":{"$ref":"13"},"destinationKey":"a","guid":"8587d5c2-d296-4808-a135-7e43b35fb7e3","$type":"Bolt.ValueConnection"},{"sourceUnit":{"$ref":"23"},"sourceKey":"output","destinationUnit":{"$ref":"34"},"destinationKey":"b","guid":"84b92a2a-1aa5-4c81-829b-4cef563710ef","$type":"Bolt.ValueConnection"},{"sourceUnit":{"$ref":"32"},"sourceKey":"value","destinationUnit":{"$ref":"34"},"destinationKey":"a","guid":"1adc2db4-862f-478b-93e2-8edf9a801060","$type":"Bolt.ValueConnection"},{"sourceUnit":{"$ref":"13"},"sourceKey":"notEqual","destinationUnit":{"$ref":"39"},"destinationKey":"condition","guid":"77d85cd3-9abb-4190-ac26-88a72b75fd77","$type":"Bolt.ValueConnection"},{"sourceUnit":{"$ref":"15"},"sourceKey":"value","destinationUnit":{"$ref":"13"},"destinationKey":"b","guid":"a7816014-e64d-4dad-ab75-e49b183d5409","$type":"Bolt.ValueConnection"},{"sourceUnit":{"$ref":"21"},"sourceKey":"output","destinationUnit":{"$ref":"25"},"destinationKey":"input","guid":"6ce913d5-17bc-4382-8537-b95460d6d96b","$type":"Bolt.ValueConnection"},{"sourceUnit":{"$ref":"34"},"sourceKey":"equal","destinationUnit":{"$ref":"30"},"destinationKey":"condition","guid":"e88e3061-53fe-4471-bcb1-f427ee7db8c0","$type":"Bolt.ValueConnection"},{"sourceUnit":{"$ref":"45"},"sourceKey":"output","destinationUnit":{"$ref":"57"},"destinationKey":"b","guid":"5677fd05-c0d9-414f-a0b9-66731b742a49","$type":"Bolt.ValueConnection"},{"sourceUnit":{"$ref":"17"},"sourceKey":"output","destinationUnit":{"$ref":"36"},"destinationKey":"input","guid":"74cdfeed-9e15-4b04-9f6f-654ef3b52249","$type":"Bolt.ValueConnection"},{"sourceUnit":{"$ref":"11"},"sourceKey":"value","destinationUnit":{"$ref":"36"},"destinationKey":"target","guid":"eb30a13e-db07-47d7-b1d5-39323f98a106","$type":"Bolt.ValueConnection"},{"sourceUnit":{"$ref":"57"},"sourceKey":"sum","destinationUnit":{"$ref":"53"},"destinationKey":"input","guid":"20ebedab-2209-408a-b231-d849006a9fa4","$type":"Bolt.ValueConnection"},{"sourceUnit":{"$ref":"63"},"sourceKey":"comparison","destinationUnit":{"$ref":"51"},"destinationKey":"condition","guid":"ea0372b4-f437-4065-b2b2-4e12ed74414d","$type":"Bolt.ValueConnection"},{"sourceUnit":{"$ref":"47"},"sourceKey":"value","destinationUnit":{"$ref":"63"},"destinationKey":"a","guid":"a5ce3b21-c9cf-4605-9b8a-756aeed8cba4","$type":"Bolt.ValueConnection"},{"sourceUnit":{"$ref":"55"},"sourceKey":"value","destinationUnit":{"$ref":"63"},"destinationKey":"b","guid":"341e1b89-c48c-4dda-84eb-68e64f390e89","$type":"Bolt.ValueConnection"},{"sourceUnit":{"$ref":"49"},"sourceKey":"value","destinationUnit":{"$ref":"57"},"destinationKey":"a","guid":"ad9fe2b4-4d35-47d7-988d-327025bb4ace","$type":"Bolt.ValueConnection"},{"sourceUnit":{"$ref":"59"},"sourceKey":"difference","destinationUnit":{"$ref":"9"},"destinationKey":"input","guid":"877a73be-f736-4514-94d4-8ae41e96b4c3","$type":"Bolt.ValueConnection"},{"sourceUnit":{"$ref":"41"},"sourceKey":"value","destinationUnit":{"$ref":"59"},"destinationKey":"minuend","guid":"86c392ec-f36d-4e91-9f81-98ca0312218b","$type":"Bolt.ValueConnection"},{"sourceUnit":{"$ref":"43"},"sourceKey":"output","destinationUnit":{"$ref":"59"},"destinationKey":"subtrahend","guid":"e1939bc5-31c9-479c-8092-72f95c3e1c7e","$type":"Bolt.ValueConnection"},{"position":{"xMin":-1802.0,"yMin":-252.0,"xMax":-1348.0,"yMax":171.0},"label":"Limit
      manager","comment":null,"color":{"r":0.0,"g":0.0,"b":0.0,"a":1.0},"guid":"f51f827b-e152-460b-96c1-ea520034af40","$version":"A","$type":"Ludiq.GraphGroup"},{"position":{"xMin":-916.0,"yMin":-159.0,"xMax":-406.0,"yMax":156.0},"label":"Credit
      manager","comment":null,"color":{"r":0.0,"g":0.0,"b":0.0,"a":1.0},"guid":"80715843-d596-4e19-8254-de6c91f7da60","$version":"A","$type":"Ludiq.GraphGroup"},{"position":{"xMin":-2411.0,"yMin":-247.0,"xMax":-1921.0,"yMax":110.0},"label":"Pause
      game","comment":"Don''t use button when game is paused\n","color":{"r":0.0,"g":0.0,"b":0.0,"a":1.0},"guid":"9f757395-baa1-4e2f-8c7a-dd2835526fe0","$version":"A","$type":"Ludiq.GraphGroup"}],"$version":"A"}}'
    _objectReferences:
    - {fileID: -5291004690690338876, guid: 72f5874d6bb96854baf87b8792770d1e, type: 3}
    - {fileID: -856207579464717239, guid: 72f5874d6bb96854baf87b8792770d1e, type: 3}
