%YAML 1.1
%TAG !u! tag:unity3d.com,2011:
--- !u!114 &11400000
MonoBehaviour:
  m_ObjectHideFlags: 0
  m_CorrespondingSourceObject: {fileID: 0}
  m_PrefabInstance: {fileID: 0}
  m_PrefabAsset: {fileID: 0}
  m_GameObject: {fileID: 0}
  m_Enabled: 1
  m_EditorHideFlags: 0
  m_Script: {fileID: -1893448595, guid: a040fb66244a7f54289914d98ea4ef7d, type: 3}
  m_Name: F_UpArroxJump
  m_EditorClassIdentifier: 
  _data:
    _json: '{"graph":{"variables":{"collection":{"$content":[],"$version":"A"},"$version":"A"},"controlInputDefinitions":[],"controlOutputDefinitions":[],"valueInputDefinitions":[],"valueOutputDefinitions":[],"title":null,"summary":null,"pan":{"x":-2303.912,"y":-122.0871},"zoom":0.6999999,"elements":[{"kind":"Application","defaultValues":{"name":{"$content":"JumpForce","$type":"System.String"}},"position":{"x":24.0,"y":-189.0},"guid":"fc748de2-3789-4617-9246-f379257a83b7","$version":"A","$type":"Bolt.SetVariable","$id":"9"},{"specifyFallback":false,"kind":"Object","defaultValues":{"name":{"$content":"MaxValue","$type":"System.String"},"object":null},"position":{"x":-2025.0,"y":-5.0},"guid":"14ab914c-4578-4c98-b8ba-324e3aba09d7","$version":"A","$type":"Bolt.GetVariable","$id":"11"},{"specifyFallback":false,"kind":"Object","defaultValues":{"name":{"$content":"MaxValue","$type":"System.String"},"object":null},"position":{"x":-2448.0,"y":628.0},"guid":"7647a888-52e6-4037-9263-9a359d6f8669","$version":"A","$type":"Bolt.GetVariable","$id":"13"},{"numeric":true,"defaultValues":{"b":{"$content":0.0,"$type":"System.Single"}},"position":{"x":-745.0,"y":-52.0},"guid":"6ce10882-f5c1-4420-a1fb-9babc27e2326","$version":"A","$type":"Bolt.Greater","$id":"15"},{"chainable":false,"member":{"name":"sprite","parameterTypes":null,"targetType":"UnityEngine.SpriteRenderer","targetTypeName":"UnityEngine.SpriteRenderer","$version":"A"},"defaultValues":{"target":null,"input":null},"position":{"x":-1372.0,"y":16.0},"guid":"35c1b642-69cc-4db9-aef4-d3752db6f217","$version":"A","$type":"Bolt.SetMember","$id":"17"},{"chainable":false,"member":{"name":"sprite","parameterTypes":null,"targetType":"UnityEngine.SpriteRenderer","targetTypeName":"UnityEngine.SpriteRenderer","$version":"A"},"defaultValues":{"target":null,"input":null},"position":{"x":-1710.0,"y":510.0},"guid":"f8a5bcfc-7021-4eed-98fa-e052cf2c9494","$version":"A","$type":"Bolt.SetMember","$id":"20"},{"defaultValues":{},"position":{"x":-2074.0,"y":375.0},"guid":"850b172e-2282-4ad4-9dbe-4dbc371418a6","$version":"A","$type":"Bolt.Branch","$id":"23"},{"specifyFallback":false,"kind":"Application","defaultValues":{"name":{"$content":"JumpForce","$type":"System.String"}},"position":{"x":-337.0,"y":-78.0},"guid":"4f483ac8-abee-4135-b509-a7e4cec876bf","$version":"A","$type":"Bolt.GetVariable","$id":"25"},{"specifyFallback":false,"kind":"Application","defaultValues":{"name":{"$content":"NbCredit","$type":"System.String"}},"position":{"x":-918.0,"y":-57.0},"guid":"a9549854-e807-4bcf-b4ec-69e97869d6db","$version":"A","$type":"Bolt.GetVariable","$id":"27"},{"coroutine":false,"defaultValues":{"target":null},"position":{"x":-2751.0,"y":-232.0},"guid":"5cd3265f-d304-4606-a4ec-dfc5df096943","$version":"A","$type":"Bolt.OnButtonClick","$id":"29"},{"specifyFallback":false,"kind":"Application","defaultValues":{"name":{"$content":"JumpForce","$type":"System.String"}},"position":{"x":-2033.0,"y":-118.0},"guid":"9e461d7c-65b0-4835-89b6-8589b4d94f49","$version":"A","$type":"Bolt.GetVariable","$id":"31"},{"type":"UnityEngine.Sprite","value":{"$content":0,"$type":"UnityEngine.Object"},"defaultValues":{},"position":{"x":-1690.0,"y":240.0},"guid":"a686a296-b0fd-4bf0-a827-0bcfe9bdf558","$version":"A","$type":"Bolt.Literal","$id":"33"},{"defaultValues":{},"position":{"x":-1747.0,"y":-225.0},"guid":"a3965187-5764-4975-aded-40ef854138d9","$version":"A","$type":"Bolt.Branch","$id":"35"},{"specifyFallback":false,"kind":"Object","defaultValues":{"name":{"$content":"SpriteRenderer","$type":"System.String"},"object":null},"position":{"x":-1925.0,"y":173.0},"guid":"ea5420ee-d224-445d-bf6b-43ec7f80f3c3","$version":"A","$type":"Bolt.GetVariable","$id":"37"},{"type":"System.Single","value":{"$content":0.0,"$type":"System.Single"},"defaultValues":{},"position":{"x":-889.0,"y":41.0},"guid":"74ec07eb-1f48-410c-8710-a69a729de71d","$version":"A","$type":"Bolt.Literal","$id":"39"},{"defaultValues":{},"position":{"x":-721.0,"y":69.0},"guid":"90947875-3b74-42bb-a8bb-ee99e4960774","$version":"A","$type":"Bolt.GenericSubtract","$id":"41"},{"defaultValues":{},"position":{"x":-2216.0,"y":-226.0},"guid":"f668b47a-6f46-4a90-a00b-e70250deb083","$version":"A","$type":"Bolt.Branch","$id":"43"},{"numeric":false,"defaultValues":{},"position":{"x":-2361.0,"y":-133.0},"guid":"9454a130-06c2-4d3d-9601-854ca4d22abc","$version":"A","$type":"Bolt.Equal","$id":"45"},{"type":"System.Boolean","value":{"$content":true,"$type":"System.Boolean"},"defaultValues":{},"position":{"x":-2517.0,"y":-23.0},"guid":"e24980eb-f274-44f2-adf3-04a0656c57ac","$version":"A","$type":"Bolt.Literal","$id":"47"},{"kind":"Application","defaultValues":{"name":{"$content":"NbCredit","$type":"System.String"}},"position":{"x":-574.0,"y":14.0},"guid":"eef586e3-5fbd-41b0-8afe-28e7705fce46","$version":"A","$type":"Bolt.SetVariable","$id":"49"},{"numeric":true,"defaultValues":{"b":{"$content":0.0,"$type":"System.Single"}},"position":{"x":-1852.0,"y":-68.0},"guid":"bb771c4f-2c5d-42ef-9644-0b80827c75ed","$version":"A","$type":"Bolt.Less","$id":"51"},{"defaultValues":{},"position":{"x":-129.0,"y":-33.0},"guid":"ca7f0e74-5c2b-48f9-821d-61799d9d0074","$version":"A","$type":"Bolt.GenericAdd","$id":"53"},{"specifyFallback":false,"kind":"Application","defaultValues":{"name":{"$content":"IsPaused","$type":"System.String"}},"position":{"x":-2538.0,"y":-133.0},"guid":"5c92e396-7ff1-4f07-a6d9-257cf7fc3611","$version":"A","$type":"Bolt.GetVariable","$id":"55"},{"type":"System.Int32","value":{"$content":1,"$type":"System.Int32"},"defaultValues":{},"position":{"x":-294.0,"y":28.0},"guid":"9a46a063-5813-4b90-85d3-8a68dffae172","$version":"A","$type":"Bolt.Literal","$id":"57"},{"type":"UnityEngine.Sprite","value":{"$content":1,"$type":"UnityEngine.Object"},"defaultValues":{},"position":{"x":-2173.0,"y":712.0},"guid":"9ac2f9e4-f66c-4a2b-ad86-9fa8de8bfc34","$version":"A","$type":"Bolt.Literal","$id":"59"},{"specifyFallback":false,"kind":"Application","defaultValues":{"name":{"$content":"JumpForce","$type":"System.String"}},"position":{"x":-2456.0,"y":515.0},"guid":"99a094f0-1670-4b0c-9374-fc8d0395f714","$version":"A","$type":"Bolt.GetVariable","$id":"61"},{"defaultValues":{},"position":{"x":-632.0,"y":-200.0},"guid":"0559b2cf-b481-4d72-b96f-37aae2a6bdfa","$version":"A","$type":"Bolt.Branch","$id":"63"},{"numeric":false,"defaultValues":{},"position":{"x":-2235.0,"y":567.0},"guid":"a354c384-ac38-4470-94cb-9cfa5696d3b1","$version":"A","$type":"Bolt.NotEqual","$id":"65"},{"coroutine":false,"defaultValues":{},"position":{"x":-2405.0,"y":376.0},"guid":"24a38d74-acdb-4bcd-8e1a-1cb726a2a4e6","$version":"A","$type":"Bolt.Update","$id":"67"},{"type":"System.Single","value":{"$content":1.0,"$type":"System.Single"},"defaultValues":{},"position":{"x":-837.0,"y":155.0},"guid":"b0bd1052-5b1d-4277-93d4-a9a6c4307f10","$version":"A","$type":"Bolt.Literal","$id":"69"},{"sourceUnit":{"$ref":"67"},"sourceKey":"trigger","destinationUnit":{"$ref":"23"},"destinationKey":"enter","guid":"d9e5b876-57ec-4673-98b3-c0763b4877c3","$type":"Bolt.ControlConnection"},{"sourceUnit":{"$ref":"23"},"sourceKey":"ifTrue","destinationUnit":{"$ref":"20"},"destinationKey":"assign","guid":"53eb90f7-c53b-4117-9c0c-b31e75b3e05c","$type":"Bolt.ControlConnection"},{"sourceUnit":{"$ref":"35"},"sourceKey":"ifFalse","destinationUnit":{"$ref":"17"},"destinationKey":"assign","guid":"0e95030a-7c59-4e1b-9851-d6259a455387","$type":"Bolt.ControlConnection"},{"sourceUnit":{"$ref":"49"},"sourceKey":"assigned","destinationUnit":{"$ref":"9"},"destinationKey":"assign","guid":"f73f0aeb-f5fa-4afb-9765-19918bca8130","$type":"Bolt.ControlConnection"},{"sourceUnit":{"$ref":"63"},"sourceKey":"ifTrue","destinationUnit":{"$ref":"49"},"destinationKey":"assign","guid":"6c6d8505-027f-48f4-a442-a5855e2e7b00","$type":"Bolt.ControlConnection"},{"sourceUnit":{"$ref":"35"},"sourceKey":"ifTrue","destinationUnit":{"$ref":"63"},"destinationKey":"enter","guid":"4d0c44ff-2f10-4634-bc43-934a46009652","$type":"Bolt.ControlConnection"},{"sourceUnit":{"$ref":"43"},"sourceKey":"ifFalse","destinationUnit":{"$ref":"35"},"destinationKey":"enter","guid":"33b32022-8c4a-4650-bc3a-474ef7a7e379","$type":"Bolt.ControlConnection"},{"sourceUnit":{"$ref":"29"},"sourceKey":"trigger","destinationUnit":{"$ref":"43"},"destinationKey":"enter","guid":"8299ad0a-228a-4455-b5b6-9a0578765e4f","$type":"Bolt.ControlConnection"},{"sourceUnit":{"$ref":"11"},"sourceKey":"value","destinationUnit":{"$ref":"51"},"destinationKey":"b","guid":"c6dac031-6d52-446e-82db-e2768d180120","$type":"Bolt.ValueConnection"},{"sourceUnit":{"$ref":"25"},"sourceKey":"value","destinationUnit":{"$ref":"53"},"destinationKey":"a","guid":"b4e7cfd4-0dd4-4c56-a7ed-0c3a5a261031","$type":"Bolt.ValueConnection"},{"sourceUnit":{"$ref":"27"},"sourceKey":"value","destinationUnit":{"$ref":"41"},"destinationKey":"minuend","guid":"cd714135-9f2a-484f-8cdb-8e30584b367d","$type":"Bolt.ValueConnection"},{"sourceUnit":{"$ref":"69"},"sourceKey":"output","destinationUnit":{"$ref":"41"},"destinationKey":"subtrahend","guid":"45d9998c-8dea-460f-babd-2ae4e8f8ee83","$type":"Bolt.ValueConnection"},{"sourceUnit":{"$ref":"41"},"sourceKey":"difference","destinationUnit":{"$ref":"49"},"destinationKey":"input","guid":"87526a79-e798-4336-ae30-c01d20413440","$type":"Bolt.ValueConnection"},{"sourceUnit":{"$ref":"51"},"sourceKey":"comparison","destinationUnit":{"$ref":"35"},"destinationKey":"condition","guid":"4ff6606a-b4b6-4877-aefe-fd4b4f6e9018","$type":"Bolt.ValueConnection"},{"sourceUnit":{"$ref":"53"},"sourceKey":"sum","destinationUnit":{"$ref":"9"},"destinationKey":"input","guid":"15e768f3-a7fd-4c68-9f4f-8d00693f7511","$type":"Bolt.ValueConnection"},{"sourceUnit":{"$ref":"65"},"sourceKey":"notEqual","destinationUnit":{"$ref":"23"},"destinationKey":"condition","guid":"4add23f9-9cad-4cdf-a50c-38b74d4dd1e8","$type":"Bolt.ValueConnection"},{"sourceUnit":{"$ref":"59"},"sourceKey":"output","destinationUnit":{"$ref":"20"},"destinationKey":"input","guid":"63b5dabb-9139-4b3f-a1f5-8fb808b4c05d","$type":"Bolt.ValueConnection"},{"sourceUnit":{"$ref":"39"},"sourceKey":"output","destinationUnit":{"$ref":"15"},"destinationKey":"b","guid":"c0065f3e-35e0-48f6-a612-e279ac2d218c","$type":"Bolt.ValueConnection"},{"sourceUnit":{"$ref":"31"},"sourceKey":"value","destinationUnit":{"$ref":"51"},"destinationKey":"a","guid":"dd0c7ec6-67f3-4989-a82d-f9745e4d4d6f","$type":"Bolt.ValueConnection"},{"sourceUnit":{"$ref":"27"},"sourceKey":"value","destinationUnit":{"$ref":"15"},"destinationKey":"a","guid":"92047ff4-53c2-4792-a6d0-07d36973f67e","$type":"Bolt.ValueConnection"},{"sourceUnit":{"$ref":"45"},"sourceKey":"equal","destinationUnit":{"$ref":"43"},"destinationKey":"condition","guid":"e4237b78-d81b-4e48-b73e-3cea6f2a79a0","$type":"Bolt.ValueConnection"},{"sourceUnit":{"$ref":"37"},"sourceKey":"value","destinationUnit":{"$ref":"17"},"destinationKey":"target","guid":"ac58f9bd-95bb-4766-bbf6-be7262c8b8f9","$type":"Bolt.ValueConnection"},{"sourceUnit":{"$ref":"47"},"sourceKey":"output","destinationUnit":{"$ref":"45"},"destinationKey":"b","guid":"322e1af7-3fcb-4268-83a3-cab325b4e11d","$type":"Bolt.ValueConnection"},{"sourceUnit":{"$ref":"15"},"sourceKey":"comparison","destinationUnit":{"$ref":"63"},"destinationKey":"condition","guid":"21101aac-b19e-4dc2-837c-587c6c35921a","$type":"Bolt.ValueConnection"},{"sourceUnit":{"$ref":"37"},"sourceKey":"value","destinationUnit":{"$ref":"20"},"destinationKey":"target","guid":"86154241-72b5-4cf9-a203-9dc89bc9aab4","$type":"Bolt.ValueConnection"},{"sourceUnit":{"$ref":"13"},"sourceKey":"value","destinationUnit":{"$ref":"65"},"destinationKey":"b","guid":"bd15d4a7-ae4a-40c1-8663-e899ba9fb1ca","$type":"Bolt.ValueConnection"},{"sourceUnit":{"$ref":"61"},"sourceKey":"value","destinationUnit":{"$ref":"65"},"destinationKey":"a","guid":"79892d08-9355-4206-ba67-c2b0f94ae091","$type":"Bolt.ValueConnection"},{"sourceUnit":{"$ref":"33"},"sourceKey":"output","destinationUnit":{"$ref":"17"},"destinationKey":"input","guid":"7bbd6c1b-8bcb-41bf-bbbb-070769d7489c","$type":"Bolt.ValueConnection"},{"sourceUnit":{"$ref":"57"},"sourceKey":"output","destinationUnit":{"$ref":"53"},"destinationKey":"b","guid":"d8b605ec-bc3d-40ca-bc2e-73c8e7deb66c","$type":"Bolt.ValueConnection"},{"sourceUnit":{"$ref":"55"},"sourceKey":"value","destinationUnit":{"$ref":"45"},"destinationKey":"a","guid":"52e6b54f-3073-4ce5-bf29-470928e7795b","$type":"Bolt.ValueConnection"},{"position":{"xMin":-2076.0,"yMin":-280.0,"xMax":-1622.0,"yMax":132.0},"label":"Limit
      manager","comment":null,"color":{"r":0.0,"g":0.0,"b":0.0,"a":1.0},"guid":"4acf8d6b-b9dd-478d-966c-9c55725d2855","$version":"A","$type":"Ludiq.GraphGroup"},{"position":{"xMin":-935.0,"yMin":-264.0,"xMax":-425.0,"yMax":256.0},"label":"Credit
      manager","comment":null,"color":{"r":0.0,"g":0.0,"b":0.0,"a":1.0},"guid":"e3d832e7-4caa-43b3-8f30-2f8c0e244cdd","$version":"A","$type":"Ludiq.GraphGroup"},{"position":{"xMin":-2582.0,"yMin":-275.0,"xMax":-2092.0,"yMax":82.0},"label":"Pause
      game","comment":"Don''t use button when game is paused\n","color":{"r":0.0,"g":0.0,"b":0.0,"a":1.0},"guid":"43cc13a6-8d3e-48c9-abaa-b4d1a73aceac","$version":"A","$type":"Ludiq.GraphGroup"}],"$version":"A"}}'
    _objectReferences:
    - {fileID: -3906949887962127491, guid: c31142c802a19144690dd8b646c48bad, type: 3}
    - {fileID: -4691289337056885013, guid: c31142c802a19144690dd8b646c48bad, type: 3}
