%YAML 1.1
%TAG !u! tag:unity3d.com,2011:
--- !u!114 &11400000
MonoBehaviour:
  m_ObjectHideFlags: 0
  m_CorrespondingSourceObject: {fileID: 0}
  m_PrefabInstance: {fileID: 0}
  m_PrefabAsset: {fileID: 0}
  m_GameObject: {fileID: 0}
  m_Enabled: 1
  m_EditorHideFlags: 0
  m_Script: {fileID: -1893448595, guid: a040fb66244a7f54289914d98ea4ef7d, type: 3}
  m_Name: F_CenterCamera
  m_EditorClassIdentifier: 
  _data:
    _json: '{"graph":{"variables":{"collection":{"$content":[],"$version":"A"},"$version":"A"},"controlInputDefinitions":[],"controlOutputDefinitions":[],"valueInputDefinitions":[],"valueOutputDefinitions":[],"title":null,"summary":null,"pan":{"x":-71.00098,"y":109.8885},"zoom":0.9,"elements":[{"coroutine":false,"defaultValues":{},"position":{"x":-204.0,"y":-144.0},"guid":"ad9e5a46-d334-4cc4-b5a9-5e7780cc1910","$version":"A","$type":"Bolt.Start"},{"coroutine":false,"defaultValues":{},"position":{"x":-204.0,"y":60.0},"guid":"f476e517-c4ea-462b-add3-2efce9518e16","$version":"A","$type":"Bolt.Update","$id":"11"},{"member":{"name":"x","parameterTypes":null,"targetType":"UnityEngine.Vector3","targetTypeName":"UnityEngine.Vector3","$version":"A"},"defaultValues":{"target":{"x":0.0,"y":0.0,"z":0.0,"$type":"UnityEngine.Vector3"}},"position":{"x":-86.0,"y":265.0},"guid":"1972ca35-c042-45c3-abc0-4225910fef6e","$version":"A","$type":"Bolt.GetMember","$id":"13"},{"member":{"name":"position","parameterTypes":null,"targetType":"UnityEngine.Transform","targetTypeName":"UnityEngine.Transform","$version":"A"},"defaultValues":{"target":null},"position":{"x":-313.0,"y":298.0},"guid":"f706ba78-2d12-4b63-90ca-610064dd5345","$version":"A","$type":"Bolt.GetMember","$id":"16"},{"chainable":false,"member":{"name":"position","parameterTypes":null,"targetType":"UnityEngine.Transform","targetTypeName":"UnityEngine.Transform","$version":"A"},"defaultValues":{"target":null,"input":{"x":0.0,"y":0.0,"z":0.0,"$type":"UnityEngine.Vector3"}},"position":{"x":406.0,"y":47.0},"guid":"89261944-b7e4-4558-b9b7-2025ca0721cf","$version":"A","$type":"Bolt.SetMember","$id":"19"},{"member":{"name":"y","parameterTypes":null,"targetType":"UnityEngine.Vector3","targetTypeName":"UnityEngine.Vector3","$version":"A"},"defaultValues":{"target":{"x":0.0,"y":0.0,"z":0.0,"$type":"UnityEngine.Vector3"}},"position":{"x":-84.0,"y":355.0},"guid":"412f3f72-1361-4c16-b17e-590ddc59c381","$version":"A","$type":"Bolt.GetMember","$id":"22"},{"chainable":false,"member":{"name":".ctor","parameterTypes":["System.Single","System.Single","System.Single"],"targetType":"UnityEngine.Vector3","targetTypeName":"UnityEngine.Vector3","$version":"A"},"defaultValues":{"%x":{"$content":0.0,"$type":"System.Single"},"%y":{"$content":0.0,"$type":"System.Single"},"%z":{"$content":-10.0,"$type":"System.Single"}},"position":{"x":164.0,"y":56.0},"guid":"4173bde5-e3b5-4b21-a220-4298bbe0149c","$version":"A","$type":"Bolt.InvokeMember","$id":"25"},{"specifyFallback":false,"kind":"Object","defaultValues":{"name":{"$content":"Player","$type":"System.String"},"object":null},"position":{"x":-507.0,"y":281.0},"guid":"b623cf54-132f-49e3-973b-dd880dc8fe0f","$version":"A","$type":"Bolt.GetVariable","$id":"28"},{"sourceUnit":{"$ref":"25"},"sourceKey":"exit","destinationUnit":{"$ref":"19"},"destinationKey":"assign","guid":"8f186384-54af-4ec6-9072-15d70702f507","$type":"Bolt.ControlConnection"},{"sourceUnit":{"$ref":"11"},"sourceKey":"trigger","destinationUnit":{"$ref":"25"},"destinationKey":"enter","guid":"899ff6c8-35b8-4f68-95dd-4ddc064b00ad","$type":"Bolt.ControlConnection"},{"sourceUnit":{"$ref":"28"},"sourceKey":"value","destinationUnit":{"$ref":"16"},"destinationKey":"target","guid":"9f007052-c40f-450d-bd4c-ec81c3cae6c6","$type":"Bolt.ValueConnection"},{"sourceUnit":{"$ref":"25"},"sourceKey":"result","destinationUnit":{"$ref":"19"},"destinationKey":"input","guid":"324bcf4b-4085-477b-9f43-0e45d8fb11fe","$type":"Bolt.ValueConnection"},{"sourceUnit":{"$ref":"16"},"sourceKey":"value","destinationUnit":{"$ref":"22"},"destinationKey":"target","guid":"4a19a0c4-b8e1-4a6f-b788-a0efe061b0e8","$type":"Bolt.ValueConnection"},{"sourceUnit":{"$ref":"13"},"sourceKey":"value","destinationUnit":{"$ref":"25"},"destinationKey":"%x","guid":"6155d94d-2be7-42ad-8b4f-0899c7f85ddf","$type":"Bolt.ValueConnection"},{"sourceUnit":{"$ref":"16"},"sourceKey":"value","destinationUnit":{"$ref":"13"},"destinationKey":"target","guid":"79e4cc32-9396-40e8-a5c9-4f17bc4ee76e","$type":"Bolt.ValueConnection"},{"sourceUnit":{"$ref":"22"},"sourceKey":"value","destinationUnit":{"$ref":"25"},"destinationKey":"%y","guid":"9db3f910-903c-44aa-815c-a64800c7f27e","$type":"Bolt.ValueConnection"}],"$version":"A"}}'
    _objectReferences: []
