%YAML 1.1
%TAG !u! tag:unity3d.com,2011:
--- !u!114 &11400000
MonoBehaviour:
  m_ObjectHideFlags: 0
  m_CorrespondingSourceObject: {fileID: 0}
  m_PrefabInstance: {fileID: 0}
  m_PrefabAsset: {fileID: 0}
  m_GameObject: {fileID: 0}
  m_Enabled: 1
  m_EditorHideFlags: 0
  m_Script: {fileID: -1893448595, guid: a040fb66244a7f54289914d98ea4ef7d, type: 3}
  m_Name: F_Enemy_Bullet
  m_EditorClassIdentifier: 
  _data:
    _json: '{"graph":{"variables":{"collection":{"$content":[],"$version":"A"},"$version":"A"},"controlInputDefinitions":[],"controlOutputDefinitions":[],"valueInputDefinitions":[],"valueOutputDefinitions":[],"title":null,"summary":null,"pan":{"x":847.536,"y":-264.9524},"zoom":1.0,"elements":[{"type":"System.Int32","value":{"$content":-1,"$type":"System.Int32"},"defaultValues":{},"position":{"x":720.0,"y":120.0},"guid":"444d3ed1-5413-45fe-b7e8-295a21deaebf","$version":"A","$type":"Bolt.Literal","$id":"9"},{"chainable":false,"member":{"name":"Log","parameterTypes":["System.Object"],"targetType":"UnityEngine.Debug","targetTypeName":"UnityEngine.Debug","$version":"A"},"defaultValues":{},"position":{"x":1422.0,"y":-163.0},"guid":"016fa9ac-7528-4549-a7db-eda1a1427562","$version":"A","$type":"Bolt.InvokeMember","$id":"11"},{"defaultValues":{},"position":{"x":967.0,"y":8.0},"guid":"4f9e4ba4-1043-4d1b-bb8a-4c2df3442a07","$version":"A","$type":"Bolt.GenericMultiply","$id":"14"},{"kind":"Object","defaultValues":{"name":{"$content":"Bullet_Speed","$type":"System.String"},"object":null},"position":{"x":935.0,"y":-543.0},"guid":"ffc6ce66-bbac-4e0b-b631-ebed9f3a3188","$version":"A","$type":"Bolt.SetVariable","$id":"16"},{"specifyFallback":false,"kind":"Object","defaultValues":{"name":{"$content":"Bullet_Speed","$type":"System.String"},"object":null},"position":{"x":678.0,"y":3.0},"guid":"28d11db7-5de0-40f0-adce-8b61fdf85ed0","$version":"A","$type":"Bolt.GetVariable","$id":"18"},{"specifyFallback":false,"kind":"Application","defaultValues":{"name":{"$content":"DetectorLeftEvent","$type":"System.String"}},"position":{"x":326.0,"y":-151.0},"guid":"1eef250c-2a0e-4f4c-bd95-e3d13f32b827","$version":"A","$type":"Bolt.GetVariable","$id":"20"},{"argumentCount":0,"coroutine":false,"defaultValues":{"target":null,"name":{"$content":"","$type":"System.String"}},"position":{"x":496.0,"y":-580.0},"guid":"1c2c9bdd-a1dc-4b07-8002-687c3deb93a1","$version":"A","$type":"Bolt.CustomEvent","$id":"22"},{"defaultValues":{},"position":{"x":236.0,"y":546.0},"guid":"42e876b3-e5fb-4cf1-85c9-2853b72bf21a","$version":"A","$type":"Bolt.Self","$id":"24"},{"argumentCount":0,"coroutine":false,"defaultValues":{"target":null,"name":{"$content":"","$type":"System.String"}},"position":{"x":609.0,"y":-171.0},"guid":"bef29fde-0305-44ee-802b-cef1f0e3b67b","$version":"A","$type":"Bolt.CustomEvent","$id":"26"},{"specifyFallback":false,"kind":"Application","defaultValues":{"name":{"$content":"DetectorRigthEvent","$type":"System.String"}},"position":{"x":153.0,"y":-571.0},"guid":"d39f2876-9dc6-4124-944e-c1fcdcb88446","$version":"A","$type":"Bolt.GetVariable","$id":"28"},{"chainable":false,"member":{"name":"Log","parameterTypes":["System.Object"],"targetType":"UnityEngine.Debug","targetTypeName":"UnityEngine.Debug","$version":"A"},"defaultValues":{},"position":{"x":1186.0,"y":-528.0},"guid":"853c9b5d-d180-48c3-8a2d-9b8998f65ff4","$version":"A","$type":"Bolt.InvokeMember","$id":"30"},{"specifyFallback":false,"kind":"Object","defaultValues":{"name":{"$content":"Bullet_Speed","$type":"System.String"},"object":null},"position":{"x":1044.0,"y":595.0},"guid":"177c88b2-4996-4170-af0b-804320184088","$version":"A","$type":"Bolt.GetVariable","$id":"33"},{"kind":"Object","defaultValues":{"name":{"$content":"Bullet_Speed","$type":"System.String"},"object":null},"position":{"x":1137.0,"y":-169.0},"guid":"2304ea2d-c342-417d-b14f-ea2b25b2cc39","$version":"A","$type":"Bolt.SetVariable","$id":"35"},{"argumentCount":0,"defaultValues":{"name":{"$content":"","$type":"System.String"},"target":null},"position":{"x":96.0,"y":377.0},"guid":"b4000341-04f8-414a-9059-541892fd7a69","$version":"A","$type":"Bolt.TriggerCustomEvent","$id":"37"},{"member":{"name":"gameObject","parameterTypes":null,"targetType":"UnityEngine.GameObject","targetTypeName":"UnityEngine.GameObject","$version":"A"},"defaultValues":{"target":null},"position":{"x":-130.0,"y":500.0},"guid":"e8a66c33-07fb-46c9-bf01-7ce9e7f4877e","$version":"A","$type":"Bolt.GetMember","$id":"39"},{"chainable":false,"member":{"name":"Destroy","parameterTypes":["UnityEngine.Object"],"targetType":"UnityEngine.GameObject","targetTypeName":"UnityEngine.GameObject","$version":"A"},"defaultValues":{"%obj":null},"position":{"x":370.0,"y":392.0},"guid":"c152d4ac-1244-4611-affe-90ea4e3c651c","$version":"A","$type":"Bolt.InvokeMember","$id":"42"},{"specifyFallback":false,"kind":"Object","defaultValues":{"name":{"$content":"Bullet_Speed","$type":"System.String"},"object":null},"position":{"x":705.0,"y":-410.0},"guid":"f1441789-a2e8-4323-98ea-4b3e66f9bd40","$version":"A","$type":"Bolt.GetVariable","$id":"45"},{"member":{"name":"right","parameterTypes":null,"targetType":"UnityEngine.Vector3","targetTypeName":"UnityEngine.Vector3","$version":"A"},"defaultValues":{},"position":{"x":1056.0,"y":500.0},"guid":"27893c25-9835-4579-a294-2f465381f866","$version":"A","$type":"Bolt.GetMember","$id":"47"},{"defaultValues":{},"position":{"x":1322.0,"y":508.0},"guid":"dfed62ba-5bb2-4950-a3f4-06f83aeca1d7","$version":"A","$type":"Bolt.GenericMultiply","$id":"50"},{"coroutine":false,"defaultValues":{},"position":{"x":1068.0,"y":363.0},"guid":"a7d2ed4f-128a-412b-aeaf-89e242dcd0b0","$version":"A","$type":"Bolt.Start","$id":"52"},{"coroutine":false,"defaultValues":{"target":null},"position":{"x":-485.0,"y":422.0},"guid":"e58a0224-53fb-4990-b031-5594050b6399","$version":"A","$type":"Bolt.OnCollisionEnter2D","$id":"54"},{"chainable":false,"member":{"name":"velocity","parameterTypes":null,"targetType":"UnityEngine.Rigidbody2D","targetTypeName":"UnityEngine.Rigidbody2D","$version":"A"},"defaultValues":{"target":null,"input":{"x":0.0,"y":0.0,"$type":"UnityEngine.Vector2"}},"position":{"x":1567.0,"y":362.0},"guid":"6096d53e-98a2-47cc-b5b3-bb458381ed8b","$version":"A","$type":"Bolt.SetMember","$id":"56"},{"sourceUnit":{"$ref":"35"},"sourceKey":"assigned","destinationUnit":{"$ref":"11"},"destinationKey":"enter","guid":"52c9c4f9-4bb9-4180-9af4-522574b353a8","$type":"Bolt.ControlConnection"},{"sourceUnit":{"$ref":"16"},"sourceKey":"assigned","destinationUnit":{"$ref":"30"},"destinationKey":"enter","guid":"b0483bcd-74c5-45d7-930d-ed7430e188ae","$type":"Bolt.ControlConnection"},{"sourceUnit":{"$ref":"26"},"sourceKey":"trigger","destinationUnit":{"$ref":"35"},"destinationKey":"assign","guid":"04bd90d0-8e82-4c07-adcc-27d96e023820","$type":"Bolt.ControlConnection"},{"sourceUnit":{"$ref":"22"},"sourceKey":"trigger","destinationUnit":{"$ref":"16"},"destinationKey":"assign","guid":"4bfda842-b23b-4e76-bb7d-87e75b444bbc","$type":"Bolt.ControlConnection"},{"sourceUnit":{"$ref":"54"},"sourceKey":"trigger","destinationUnit":{"$ref":"37"},"destinationKey":"enter","guid":"9ae9b1c1-1458-4933-a1a1-63f8d65d4d76","$type":"Bolt.ControlConnection"},{"sourceUnit":{"$ref":"37"},"sourceKey":"exit","destinationUnit":{"$ref":"42"},"destinationKey":"enter","guid":"c9ffa6ef-b16a-4ad3-8840-df3e8e8897b9","$type":"Bolt.ControlConnection"},{"sourceUnit":{"$ref":"52"},"sourceKey":"trigger","destinationUnit":{"$ref":"56"},"destinationKey":"assign","guid":"69bb0390-de15-4b8e-88f5-69250fec8613","$type":"Bolt.ControlConnection"},{"sourceUnit":{"$ref":"54"},"sourceKey":"collider","destinationUnit":{"$ref":"39"},"destinationKey":"target","guid":"935fbe51-d067-47ef-8b60-7179d77ea8fc","$type":"Bolt.ValueConnection"},{"sourceUnit":{"$ref":"33"},"sourceKey":"value","destinationUnit":{"$ref":"50"},"destinationKey":"b","guid":"81fd7e09-3744-4af1-99e3-4482e216ade9","$type":"Bolt.ValueConnection"},{"sourceUnit":{"$ref":"35"},"sourceKey":"output","destinationUnit":{"$ref":"11"},"destinationKey":"%message","guid":"9b4bfaa5-7251-48c8-8a26-d9cd456a491e","$type":"Bolt.ValueConnection"},{"sourceUnit":{"$ref":"18"},"sourceKey":"value","destinationUnit":{"$ref":"14"},"destinationKey":"a","guid":"db885c42-0ab1-4398-99bf-6f041248fa69","$type":"Bolt.ValueConnection"},{"sourceUnit":{"$ref":"28"},"sourceKey":"value","destinationUnit":{"$ref":"22"},"destinationKey":"name","guid":"c17e9dfe-3c0b-4c6f-8d96-2107fb036d5a","$type":"Bolt.ValueConnection"},{"sourceUnit":{"$ref":"14"},"sourceKey":"product","destinationUnit":{"$ref":"35"},"destinationKey":"input","guid":"54880e44-5822-486d-a09a-db40c2e6cbd7","$type":"Bolt.ValueConnection"},{"sourceUnit":{"$ref":"9"},"sourceKey":"output","destinationUnit":{"$ref":"14"},"destinationKey":"b","guid":"7b4a026b-371e-4595-9ad9-497359e39945","$type":"Bolt.ValueConnection"},{"sourceUnit":{"$ref":"39"},"sourceKey":"value","destinationUnit":{"$ref":"37"},"destinationKey":"target","guid":"9768cbbf-535a-4305-902d-45fc15c56ffe","$type":"Bolt.ValueConnection"},{"sourceUnit":{"$ref":"50"},"sourceKey":"product","destinationUnit":{"$ref":"56"},"destinationKey":"input","guid":"4f7292d3-d5f6-4bf7-a4eb-cec1954e725e","$type":"Bolt.ValueConnection"},{"sourceUnit":{"$ref":"47"},"sourceKey":"value","destinationUnit":{"$ref":"50"},"destinationKey":"a","guid":"10d18a2a-0696-45a2-b900-a0cbaa35c8c9","$type":"Bolt.ValueConnection"},{"sourceUnit":{"$ref":"24"},"sourceKey":"self","destinationUnit":{"$ref":"42"},"destinationKey":"%obj","guid":"d3a350a7-714a-4918-b614-349a893d71a3","$type":"Bolt.ValueConnection"},{"sourceUnit":{"$ref":"16"},"sourceKey":"output","destinationUnit":{"$ref":"30"},"destinationKey":"%message","guid":"cce93bd3-90e3-4d6e-b148-1b2d711509f4","$type":"Bolt.ValueConnection"},{"sourceUnit":{"$ref":"45"},"sourceKey":"value","destinationUnit":{"$ref":"16"},"destinationKey":"input","guid":"298ab52e-77b2-4ded-993a-0f3b9eccd18b","$type":"Bolt.ValueConnection"},{"sourceUnit":{"$ref":"20"},"sourceKey":"value","destinationUnit":{"$ref":"26"},"destinationKey":"name","guid":"94187400-a589-4c03-b705-5b3615a283ac","$type":"Bolt.ValueConnection"}],"$version":"A"}}'
    _objectReferences: []
